{
    "/js/app.js": "/js/app.js",
    "/css/app.css": "/css/app.css",
    "/css/include.v1.css": "/css/include.v1.css",
    "/css/datatables.css": "/css/datatables.css",
    "/js/include.v1.js": "/js/include.v1.js",
    "/js/login-register.js": "/js/login-register.js"
}
